<?xml version="1.0" encoding="UTF-8"?>
<CustomTab xmlns="http://soap.sforce.com/2006/04/metadata">
    <customObject>true</customObject>
    <description>Improved Help Topics</description>
    <mobileReady>false</mobileReady>
    <motif>Custom124: TV Widescreen</motif>
</CustomTab>
